module gitlab.com/circutor-library/gostd

go 1.19

require (
	github.com/benbjohnson/clock v1.3.0
	github.com/sebdah/goldie/v2 v2.5.3
	github.com/stretchr/testify v1.8.1
)

require (
	github.com/davecgh/go-spew v1.1.1 // indirect
	github.com/pmezard/go-difflib v1.0.0 // indirect
	github.com/sergi/go-diff v1.0.0 // indirect
	gopkg.in/yaml.v3 v3.0.1 // indirect
)
